{
  "books": {
    "b1": {
      "key": "b1",
      "name": "Candide",
      "author": "Voltaire",
      "cover-img": "/covers/c.jpg",
      "genre": "Satire",
      "rating": 3.8,
      "description":
        "Candide, ou l'Optimisme, is a French satire first published in 1759 by Voltaire, a philosopher of the Age of Enlightenment."
    },
    "b2": {
      "key": "b2",
      "name": "Harry Potter",
      "author": "J. K. Rowling",
      "cover-img": "/covers/hp.jpg",
      "genre": "Fantasy",
      "rating": 3.6,
      "description":
        "Harry Potter is a series of fantasy novels written by British author J. K. Rowling. The novels chronicle the life of a young wizard, Harry Potter, and his friends Hermione Granger and Ron Weasley"
    },
    "b3": {
      "key": "b3",
      "name": "The Girl with the Dragon Tattoo",
      "author": "Stieg Larsson",
      "cover-img": "/covers/tgwdt.jpg",
      "genre": "Crime",
      "rating": 3.5,
      "description":
        "Disgraced financial reporter Mikael Blomkvist (Daniel Craig) finds a chance to redeem his honor after being hired by wealthy Swedish industrialist Henrik Vanger (Christopher Plummer) to solve the 40-year-old murder of Vanger's niece, Harriet."
    },
    "b4": {
      "key": "b4",
      "name": "Lord of the Rings",
      "author": "J. R. R. Tolkien",
      "cover-img": "/covers/lotr.jpg",
      "genre": "mystery",
      "rating": 3.5,
      "description": "lol"
    },
    "b5": {
      "key": "b5",
      "name": "The Count of Monte Cristo",
      "author": "Alexandre Dumas",
      "cover-img": "/covers/comc.jpg",
      "genre": "mystery",
      "rating": 3.5,
      "description": "lol"
    },
    "b6": {
      "key": "b6",
      "name": "A Game of Thrones",
      "author": "George R. R. Martin",
      "cover-img": "/covers/got.jpg",
      "genre": "mystery",
      "rating": 3.5,
      "description": "lol"
    },
    "b7": {
      "key": "b7",
      "name": "To Kill a Mockingbird",
      "author": "Harper Lee",
      "cover-img": "/covers/tkam.jpg",
      "genre": "mystery",
      "rating": 3.5,
      "description": "lol"
    },
    "b8": {
      "key": "b8",
      "name": "The Little Prince",
      "author": "Antoine de Saint-Exupéry",
      "cover-img": "/covers/tlp.jpg",
      "genre": "mystery",
      "rating": 3.5,
      "description": "lol"
    },
    "b9": {
      "key": "b9",
      "name": "Siddhartha",
      "author": "Hermann Hesse",
      "cover-img": "/covers/s.jpg",
      "genre": "mystery",
      "rating": 3.5,
      "description": "lol"
    }
  }
}
